11

7 12
7
3 10
6 7
5 9
4 0
2 9
5 6
2 3
12 1

14 10
9
10 8
13 4
3 0
13 5
1 7
12 6
4 9
5 0
7 0
17 5

5 14
9
3 2
2 3
0 0
1 7
1 0
0 9
0 9
2 12
1 9
3 2

10 5
13
5 2
1 3
1 1
6 3
6 2
5 1
9 1
1 2
7 2
9 0
7 3
8 4
1 1
5 3

12 9
10
2 3
7 7
0 8
11 2
4 0
9 1
5 1
9 2
2 6
8 2
16 5

2 11
6
1 2
1 2
1 4
1 9
0 0
1 3
7 4

11 2
12
5 1
5 1
10 0
9 1
8 1
5 1
5 0
9 1
6 1
9 1
0 0
9 0
1 5

8 7
3
1 0
3 2
4 2
19 3

14 6
7
8 0
11 3
1 3
6 4
12 1
1 1
8 2
20 2

14 3
11
6 2
1 0
7 2
6 0
5 2
8 2
5 0
5 0
0 1
7 2
7 0
7 3

15 1
11
6 0
0 0
12 0
12 0
2 0
8 0
6 0
11 0
3 0
3 0
1 0
3 5
