10

10 19
15
3 10
9 11
5 1
3 0
2 1
4 13
3 0
8 7
9 18
8 2
6 8
5 15
5 11
2 4
0 18
4 2

20 13
12
10 9
17 2
7 0
12 10
3 5
19 10
14 8
0 12
2 6
6 12
19 6
13 9
1 3

4 14
9
0 4
3 11
1 12
2 9
3 2
2 13
3 0
3 10
0 1
5 3

19 19
15
0 8
2 12
18 7
9 12
14 9
11 9
11 5
18 11
7 11
12 17
7 0
3 13
18 15
14 18
10 6
13 1

19 17
7
16 14
5 16
12 1
15 2
13 13
1 0
0 11
12 2

13 18
13
6 5
6 9
8 3
9 17
9 5
9 1
5 14
0 7
4 13
9 13
4 9
10 3
6 3
4 5

19 6
11
3 2
7 3
5 2
1 1
14 1
10 1
4 4
0 0
5 4
1 5
12 3
16 3

20 13
15
9 11
6 4
12 4
7 7
19 10
9 12
16 8
15 10
18 4
5 4
3 4
8 6
6 4
4 9
17 5
15 2

20 18
8
8 10
13 7
8 10
19 3
13 5
5 0
1 13
13 12
3 2

20 7
9
5 5
14 3
0 5
18 4
5 6
16 0
6 3
14 4
14 1
1 3
