*** Life<ConwayCell> 11x29 ***

Generation = 0, Population = 25.
.............................
.....*.......................
.............*........*......
......*............*..*......
**....*....*...............*.
.............................
.*.*............*............
.............................
..**.*..........**...........
........................*...*
...**........*........*......

Generation = 123, Population = 0.
.............................
.............................
.............................
.............................
.............................
.............................
.............................
.............................
.............................
.............................
.............................

*** Life<ConwayCell> 11x2 ***

Generation = 0, Population = 7.
.*
*.
..
*.
.*
.*
..
*.
..
*.
..

Generation = 38, Population = 0.
..
..
..
..
..
..
..
..
..
..
..

Generation = 76, Population = 0.
..
..
..
..
..
..
..
..
..
..
..

Generation = 114, Population = 0.
..
..
..
..
..
..
..
..
..
..
..

Generation = 152, Population = 0.
..
..
..
..
..
..
..
..
..
..
..

Generation = 190, Population = 0.
..
..
..
..
..
..
..
..
..
..
..

*** Life<ConwayCell> 14x9 ***

Generation = 0, Population = 12.
.........
*........
.......**
.....*...
.........
..*.....*
....*....
.*.......
.....*...
.........
.*.......
.........
.....*..*
.........

*** Life<ConwayCell> 30x46 ***

Generation = 0, Population = 7.
..............................................
......................................*.......
....................*.........................
..............................................
..............................................
...............................*..............
..............................................
..............................................
..............................................
..............................................
..............................................
..............................................
..............................................
...................*..........................
..............................................
..............................................
..............................................
..............................................
............*....*..................*.........
..............................................
..............................................
..............................................
..............................................
..............................................
..............................................
..............................................
..............................................
..............................................
..............................................
..............................................

*** Life<ConwayCell> 18x11 ***

Generation = 0, Population = 26.
...........
..*........
...........
..*........
***..*..**.
.......*...
.**....*...
.**..*...*.
*.*.*......
...........
*...*......
*..*.......
...........
...........
.*.........
*.*........
...........
...........

Generation = 5, Population = 13.
...........
...........
...........
.***.......
*..*.......
*.*........
*..........
*...*......
.....*.....
..*.*......
...........
...........
...........
...........
...........
...........
...........
...........

Generation = 10, Population = 13.
...........
.***.......
*...*......
*...*......
..**.......
.*.........
...........
...........
...***.....
...........
...........
...........
...........
...........
...........
...........
...........
...........

Generation = 15, Population = 17.
.*.*.......
*...*......
*...*......
**.**......
...........
.*.**......
.*.........
...........
...**......
....*......
...........
...........
...........
...........
...........
...........
...........
...........

Generation = 20, Population = 13.
....**.....
......*....
.*****.....
.*.........
.**........
...........
...........
...........
..**.......
...........
...........
...........
...........
...........
...........
...........
...........
...........

Generation = 25, Population = 14.
.**.*......
.*****.....
......*....
....**.....
...***.....
...........
...........
...........
...........
...........
...........
...........
...........
...........
...........
...........
...........
...........

Generation = 30, Population = 6.
......*....
.......*...
...........
....*..*...
.....**....
...........
...........
...........
...........
...........
...........
...........
...........
...........
...........
...........
...........
...........

Generation = 35, Population = 4.
...........
...........
...........
.....**....
.....**....
...........
...........
...........
...........
...........
...........
...........
...........
...........
...........
...........
...........
...........

Generation = 40, Population = 4.
...........
...........
...........
.....**....
.....**....
...........
...........
...........
...........
...........
...........
...........
...........
...........
...........
...........
...........
...........

Generation = 45, Population = 4.
...........
...........
...........
.....**....
.....**....
...........
...........
...........
...........
...........
...........
...........
...........
...........
...........
...........
...........
...........

*** Life<ConwayCell> 26x49 ***

Generation = 0, Population = 19.
.................................................
.................................................
.................................................
.....................................*......*....
......*.......................*..................
.................................................
.*...............................................
.................................................
...........................*.....................
......................*..........................
..................*..............................
............*....................................
..........*.....................................*
...*.............................................
...............................*.................
......................................*..........
.........................*.......................
.................................................
.................................................
...................*.............................
...........................*.....................
.................................................
............................................*....
.................................................
.................................................
.......*.........................................

Generation = 35, Population = 0.
.................................................
.................................................
.................................................
.................................................
.................................................
.................................................
.................................................
.................................................
.................................................
.................................................
.................................................
.................................................
.................................................
.................................................
.................................................
.................................................
.................................................
.................................................
.................................................
.................................................
.................................................
.................................................
.................................................
.................................................
.................................................
.................................................

Generation = 70, Population = 0.
.................................................
.................................................
.................................................
.................................................
.................................................
.................................................
.................................................
.................................................
.................................................
.................................................
.................................................
.................................................
.................................................
.................................................
.................................................
.................................................
.................................................
.................................................
.................................................
.................................................
.................................................
.................................................
.................................................
.................................................
.................................................
.................................................

Generation = 105, Population = 0.
.................................................
.................................................
.................................................
.................................................
.................................................
.................................................
.................................................
.................................................
.................................................
.................................................
.................................................
.................................................
.................................................
.................................................
.................................................
.................................................
.................................................
.................................................
.................................................
.................................................
.................................................
.................................................
.................................................
.................................................
.................................................
.................................................

*** Life<ConwayCell> 25x43 ***

Generation = 0, Population = 17.
..........................*................
...........................................
.........................*............*....
...............................*...........
...........................................
.....................................*.....
...........................................
...........................................
................................*..........
...........*...............*...............
...........*...............................
.......................*...................
...........................................
......*........................*........*..
...........................................
...........................................
...........................................
...........................................
.........................*.................
...........................................
...........................................
............*............................*.
...........................................
..........*................................
...........................................

Generation = 100, Population = 0.
...........................................
...........................................
...........................................
...........................................
...........................................
...........................................
...........................................
...........................................
...........................................
...........................................
...........................................
...........................................
...........................................
...........................................
...........................................
...........................................
...........................................
...........................................
...........................................
...........................................
...........................................
...........................................
...........................................
...........................................
...........................................

*** Life<ConwayCell> 1x36 ***

Generation = 0, Population = 19.
..*..****..*.**.*...***..***..****..

Generation = 14, Population = 0.
....................................

Generation = 28, Population = 0.
....................................
