10

6 19
10
0 7
5 0
3 7
5 18
1 2
0 17
0 2
5 12
3 15
5 11
22 3

4 14
10
2 8
2 6
1 8
1 4
1 6
2 12
2 7
3 10
2 9
0 8
33 25

3 11
10
0 1
0 6
2 5
0 10
0 8
1 0
1 4
1 4
0 4
2 1
47 25

2 9
10
1 0
1 2
0 1
1 5
1 5
0 2
0 1
0 0
0 1
0 8
47 11

16 5
10
14 2
9 2
5 2
13 4
7 4
2 4
14 1
13 3
3 3
8 1
9 22

18 12
10
16 5
11 5
9 10
9 11
14 1
5 4
7 5
0 7
0 10
8 10
39 6

10 18
10
6 6
2 17
7 2
2 8
9 14
6 10
3 13
2 5
5 10
3 14
6 24

11 15
10
3 12
5 14
1 10
1 1
4 2
9 4
10 2
5 3
7 13
8 1
46 22

12 19
10
0 16
8 7
1 9
10 11
7 16
3 0
1 1
4 4
11 0
10 6
15 14

7 19
10
5 12
3 7
3 8
1 5
5 12
4 0
1 7
1 9
2 4
2 16
45 19
