*** Life<FredkinCell> 9x15 ***

Generation = 0, Population = 9.
---------0--0--
---------------
00-------------
---------------
---------------
---------------
0--0-----------
--0------------
------0-------0

Generation = 19, Population = 59.
8--5----1-14-8-
0--0-010--00---
+255-4-3-2--34-
--2-7---0---1-0
---4--2----643-
-030---0--00--2
34--4---731----
20--2---40----1
7-572253-----0-

*** Life<FredkinCell> 20x18 ***

Generation = 0, Population = 10.
------------------
0------------0----
------------------
------------------
--------0---------
-------------0----
--0---------------
------------------
----0-------------
------------------
------------------
------------------
------------------
---0--------------
------------------
------------------
------------------
------------------
--00--------------
-0----------------

Generation = 4, Population = 32.
--------0---------
0-0-0----0-------0
--1---------------
------------------
------------0-----
1--------0---0---0
0-----0-----------
------------------
0-----------------
---0---------0----
--0---------------
------------------
----0-------------
-------0----------
--01--------------
-0----------------
------------------
-2-1--------------
2-21--10----------
-2---1------------

Generation = 8, Population = 38.
--1-1-------------
-----00-1----0-0--
--------0---------
------------------
3---------------0-
5--1-0-------0-0--
----0-----0-------
------------------
--0---------0-----
1------------0----
--01--------------
-0----------------
--------0---------
-2-1-------0-0----
---2--------------
------------------
----0-------------
------------------
---22-----10------
---2-1---1--------

Generation = 12, Population = 89.
0-----4---------0-
00121-4-3-020-----
--2-3-----2-0-----
------------------
--2-------------0-
913-10101--0---0--
4-20--0-------0---
-0----------------
------0-----------
332-11---0-0---0-0
3--23-11--0-------
-0---1------------
--1---------------
03---3---0---0-0-0
--2-3--1--00------
-3-2-1---0--------
0-----------------
-4---2---2-1-1----
3---6-4-4-31--10--
-4---2-1-3---1----

Generation = 16, Population = 33.
------------------
-0-2---1------2-1-
--31--------------
-0----------------
------1-----2-----
-------2----------
--321-------0-----
------------------
--1-------0-----0-
-------------0----
--------1---------
---2--------------
------------------
2----------1-2---0
------------------
------------------
----0-------------
0------------1----
--7--------12----2
-----------------1

Generation = 20, Population = 85.
--31--6-----3-----
-----2-1--133-2---
4-518-31----4-----
-2---1------------
--------1---------
-4-----2---0-00-1-
--53--311-------0-
-1-3--------------
2-----0-------0-0-
4------0-1-0-0----
--23--------------
-------1----------
--3-0-----0-----0-
2-3-0--0-0---2---0
--3-----1--12----0
---2-------------2
1-------1---------
2-1-0----4-5-2---1
4-8---415--241--26
2--------------3--

Generation = 24, Population = 109.
---24-----4-4---1-
---7-36341-44340--
---1+-4-2-808-----
-4-2-1---0--------
5-330---------2-1-
+5-2---3---2-22051
--74------201---2-
------------------
--4-----1-0-0-----
66-4-5-1-----0001-
6--4-------00---01
-1-3-------3-----2
------2-----1-----
---4-43102-2---1--
---35------2-----0
2------------0----
----1-----1-2---0-
-----31-0----4-3--
---2----6494----46
6--4-----4---3---3

Generation = 28, Population = 136.
--7----04-61----3-
1-381-+--3---4-2-2
4-----6---+19-310-
-------1-0---1----
---4--11--1-2-----
+-62323-3-26-4----
----4-5---4-2-1060
-----2---3-1-----2
--63--1-1---------
88581-31030-142--1
--------1-1--2--03
21---1------------
----4-----2-------
4-4-6651240-040202
---------24-43----
252-1------3-2---6
3-------------1---
353-15544-0-16-5-3
-----57-68+---2---
7-1-0-0326-------5

Generation = 32, Population = 40.
----8-------------
----3-+4---------3
--8---------------
---3---------1----
--6-----2-----5---
-------4---------5
--8-----5---------
1------------0----
5-74------1-------
-8----------------
------------------
63-----------0----
--65--------------
-5-------8--------
--------4---------
-------------4----
--3---------------
---6--------------
-3+-+---7+--------
---8---5----------

Generation = 36, Population = 99.
1-------------3---
3-497-+-8-44-4-3--
6-+-+-9-6---------
3------5-0---1---1
--65--3-----2-----
-8-64-54---7-4-2-5
6-8-8-8-----3-----
55260----3-------3
6-854--32---------
-----6-1-3-------2
--7---------------
853-12---0-------4
---7--50--3-------
---8---------5----
-47-----42--4-----
27-7---2-2---4---7
5-51--6-----------
-8-8-----5--------
--+---+-9+--53----
-------7---5-4----

*** Life<FredkinCell> 6x20 ***

Generation = 0, Population = 10.
-0------------------
-0-----0-----------0
---------0----------
-----0--------------
--0-0-0---------0---
--------------------

Generation = 3, Population = 45.
0--10---010------0-0
---1--000200--------
0-1---12000-0--0----
-1-----000-0--0-0---
-0------110--0-0-0--
0-0-0---00----0---0-

Generation = 6, Population = 36.
1---3---12-1-00-0-0-
---2---1-3-----0----
--2--22301011--1----
-2-----0-------0-0--
-111-0--2---01----0-
-----------------0--

Generation = 9, Population = 50.
-3--4-202301-1---0--
-1---0--0-------00--
033--3--0401----2200
0---0-0---0------00-
222----03-2--2---0--
-3--0-0--00-0-0-0-0-

Generation = 12, Population = 40.
341--2---3---11--1--
-1---1-----------3--
-4--14--143-4---3--1
---0---2---0---2---1
3-3--02-4---32--1-2-
-6-2---1-3-------2-0

Generation = 15, Population = 63.
-5-2---0----04400-1-
01--0-0-03-201--04-1
0-60----25-440---22-
0--102-3----0-020-0-
3----3-2----631-1232
-6-3-0-203000--0--00

Generation = 18, Population = 44.
--334341-3---7-013-0
-------2---2---4----
-69---542-4-4-1---2-
---------4-0-1------
45--14435-407-101---
-6-3-1---4----------

Generation = 21, Population = 51.
----5451---2--41----
01----0----3-505--0-
0-+-368--55--21-44--
----0-0---03-2--0--2
765-475----1----443-
07---20-0-0-----02--

Generation = 24, Population = 38.
76-------44-3--2-5-0
-2-3---2-6-4---6---3
------+74----315-7--
---1-4-------3-2-2--
-7---+--92---3-25-6-
-8-3---3------------

Generation = 27, Population = 48.
8--67---5--637451513
-5-3----0-0----7--06
-9-----857-64----8--
----0-0606-30---0-0-
-8----65+--2---2---2
--0----40---0---0---

Generation = 30, Population = 54.
-66-+--464---8--25-4
-8---3-5-9-6-8-----7
4++057+85757-31---57
-----7---6---5-3----
-97-6--6+4+----27--3
-9---4-4-5-1-----2-0

Generation = 33, Population = 48.
-6----95-5--3--7---5
-80-0-050+07-------8
5-+0-----7-----7-868
--0-0-0-----0-0-0--2
7+84-------4-4-2---4
0+0-0-0-0---0-----0-

Generation = 36, Population = 40.
--96-7-58-6+-+-7---8
-8-----8-+-----8---8
-++-78+9-+-7---869--
-6---8-----6--------
----8+-6+4+5+-------
-----4-----1-------3

*** Life<FredkinCell> 16x2 ***

Generation = 0, Population = 7.
--
--
--
0-
--
--
--
--
-0
-0
-0
-0
00
--
--
--

Generation = 11, Population = 16.
0-
0-
23
-0
--
0-
-2
--
23
-3
-2
36
--
2-
--
08

Generation = 22, Population = 20.
33
2-
--
56
94
4-
-4
58
6-
--
54
6-
72
--
4-
4+

*** Life<FredkinCell> 19x9 ***

Generation = 0, Population = 10.
------0--
------0--
---------
---------
---0-----
0--------
---0-----
---------
---------
---------
---------
-------0-
---------
-----0---
-0-------
---------
-0------0
---------
---------

Generation = 9, Population = 75.
-103-1---
0--020---
--1----2-
------121
--0-2115-
-0--0--1-
0---0-13-
---0---10
0-0--12--
-0---0210
---1--0--
--020----
010100---
1-0-010-0
-3---211-
0-00----0
2-40432--
000-020--
-----2---

*** Life<FredkinCell> 8x5 ***

Generation = 0, Population = 8.
0-0-0
----0
-----
-----
-----
-----
--00-
00---

*** Life<FredkinCell> 16x16 ***

Generation = 0, Population = 10.
----------------
-----0----------
-----0----------
----------------
----------------
----------------
----------------
--------0-------
0---0-----------
------------0---
----------------
------------0---
----------------
0-0-------------
---------------0
----------------

*** Life<FredkinCell> 16x12 ***

Generation = 0, Population = 10.
----------0-
------0-----
------------
---------0--
-0----------
-0----------
------------
-------0--0-
------------
----0-------
------------
------------
------------
0-----------
------0-----
------------

Generation = 19, Population = 94.
2-2-2-7--12-
7---3-4--2--
1241-----2-3
1-255---323-
-411-6-21---
2542--5--547
0--1--------
4+-21----734
140--26-0-40
--2--373-5-2
-42--0--11-0
1-113-----32
06--1-3-3--0
----21---5-2
2-30---0----
01-0222--5-4

*** Life<FredkinCell> 13x8 ***

Generation = 0, Population = 9.
---0----
-0----0-
--------
--------
-0------
----0---
--0-----
--------
--00----
---0----
--------
--------
--------

Generation = 6, Population = 64.
-10--1--
0-334-11
030-0--0
0301010-
--311-00
102110--
----1131
01-11-01
---02130
--1--202
-1221-01
----0--0
01-310--

Generation = 12, Population = 44.
-----3--
3-6-6--2
-5-40-1-
--------
-3-24232
3--52160
34-4--72
--------
3----54-
-1--03-6
03642--2
--------
45352---

*** Life<FredkinCell> 16x6 ***

Generation = 0, Population = 9.
---0-0
------
------
------
-----0
------
00----
0-----
------
------
---0--
-----0
------
------
------
0-----

Generation = 16, Population = 20.
-6-2--
4-----
------
-----3
-----2
-----2
2-4---
--7---
41----
3-----
3-----
---9-6
-----6
------
---3-2
2-2---

Generation = 32, Population = 24.
-8----
------
---9--
------
8--1--
6-----
-68-7-
--+-6-
79-7--
8----+
-----7
-9-+--
---8--
6----9
------
6-+-3-
