10

14 8
11
7 3
1 7
9 6
5 2
6 7
13 4
3 0
0 5
1 3
13 4
1 4
92 86

13 8
20
4 3
5 3
11 0
6 7
4 1
3 7
0 3
11 1
9 2
1 3
4 1
9 0
4 1
1 7
2 2
2 1
12 0
11 3
7 3
1 0
92 73

13 13
12
4 4
9 10
12 1
3 3
3 11
8 12
3 2
6 5
4 6
0 3
11 8
9 2
47 42

10 10
5
2 6
9 1
5 8
3 1
5 2
97 35

17 14
14
1 13
3 11
1 13
15 0
12 7
12 12
7 5
10 13
3 8
13 1
16 6
3 3
15 8
3 6
85 59

8 9
13
0 0
5 2
0 4
7 1
7 8
1 3
2 6
5 6
4 2
3 8
5 6
2 2
4 5
81 47

19 13
14
8 6
9 8
0 0
8 8
9 7
12 7
11 1
0 5
8 6
3 11
2 6
3 11
16 9
12 12
68 45

11 13
10
4 2
8 8
1 7
3 6
4 4
6 11
3 0
9 7
2 2
5 11
71 68

13 19
16
2 3
10 5
9 8
2 12
4 16
1 2
10 4
2 5
5 2
12 17
8 18
12 4
12 8
0 4
3 2
9 15
61 71

11 11
10
2 6
9 10
0 6
9 1
10 3
0 1
2 9
7 7
8 10
3 6
71 35
