10

14 18
10
1 14
12 16
6 9
5 12
11 4
8 17
9 16
8 13
6 14
9 17
100 20

7 5
10
4 0
0 3
3 3
2 0
3 1
6 0
2 1
0 0
5 3
0 1
100 12

9 17
10
8 7
5 4
4 7
0 2
7 2
8 16
7 15
7 9
8 5
1 15
100 10

15 5
10
13 1
0 2
10 2
12 2
10 1
0 3
1 2
13 4
11 0
7 0
100 5

6 6
10
2 3
2 1
0 1
1 2
0 3
1 1
2 5
0 3
0 4
0 1
100 6

14 1
10
2 0
2 0
13 0
6 0
11 0
0 0
1 0
6 0
0 0
0 0
100 15

1 17
10
0 16
0 13
0 7
0 8
0 3
0 14
0 5
0 5
0 16
0 13
100 10

11 1
10
0 0
1 0
2 0
2 0
0 0
6 0
5 0
1 0
8 0
4 0
100 25

5 17
10
2 3
3 9
1 7
4 7
4 15
0 6
2 15
4 0
3 4
1 11
100 20

13 20
10
0 4
10 13
0 2
8 12
1 12
1 18
10 4
2 12
4 18
5 15
100 10
