10

10 10
10
9 1
8 3
1 8
2 2
2 2
5 2
1 2
6 1
9 2
6 1
1 2

7 1
7
1 0
1 0
6 0
6 0
5 0
3 0
2 0
4 1

9 10
5
5 3
2 3
6 9
7 6
3 5
3 1

45 30
10
36 7
3 18
9 5
32 22
25 3
31 8
19 20
9 17
44 13
1 10
22 13

47 41
10
41 29
21 38
31 28
14 10
44 17
46 40
21 20
35 0
14 5
10 11
3 7

40 10
8
29 1
39 3
4 2
24 1
34 3
3 1
5 2
5 1
11 8

66 20
11
58 10
58 9
16 19
55 10
32 11
35 4
48 6
9 4
0 0
29 19
10 14
17 17

7 61
13
0 39
3 20
5 49
4 52
1 37
4 46
6 28
0 10
1 60
0 6
3 58
0 46
6 26
9 16

15 7
28
4 0
2 3
9 3
1 5
1 6
4 3
8 5
1 5
1 4
13 3
13 5
9 1
13 2
3 5
1 1
3 0
0 0
7 0
14 6
13 3
12 6
14 4
5 3
5 6
14 4
4 2
7 3
6 4
12 10

18 22
10
9 4
2 20
5 21
1 16
1 12
4 12
2 11
4 12
3 1
14 8
2 1
