7

31 14
5
27 11
12 12
7 13
4 10
11 3
167 156

35 6
16
16 2
3 2
10 5
30 0
15 2
10 4
31 2
21 5
12 2
15 3
12 1
17 0
11 4
8 3
10 5
27 3
310 179

17 7
15
6 0
7 3
2 4
4 2
1 6
10 5
9 5
0 5
6 3
4 0
2 3
9 2
6 5
6 6
7 3
575 160

22 8
27
12 3
9 4
13 6
14 3
8 5
5 5
20 1
15 2
21 7
16 3
9 1
16 6
0 2
20 7
1 2
9 2
8 5
17 7
6 2
6 6
6 0
16 5
17 4
11 5
12 0
2 1
20 6
340 158

37 4
26
22 0
36 0
31 2
21 1
21 1
13 0
18 1
30 2
15 2
27 2
31 0
7 1
26 0
29 0
27 2
8 3
4 0
15 1
0 0
23 3
33 2
12 1
25 0
29 1
17 2
25 3
311 175

33 28
1
20 10
95 36

2 34
19
0 3
0 13
1 32
1 1
1 29
1 3
1 23
1 4
1 20
0 24
0 26
0 26
1 17
1 18
1 23
0 22
0 10
0 27
1 10
144 65
