*** Life<Cell> 29x17 ***

Generation = 0, Population = 11.
-----------------
-----------------
-----------------
-----------------
-------0---------
-----0-----------
-----------------
-----------------
-----------------
0----------------
-----------0-----
-----------------
-----------------
-----------------
------0----------
-----------------
-----------------
-----------------
-----------------
-----------------
-------0---------
----0---0--------
0----------------
------0----------
-----------------
-----------------
-----------------
-----------------
------0----------

Generation = 5, Population = 136.
-----00-0--------
----0-00---------
-----0-----------
---0-------0-----
000-0.---00-0----
1100---.0-0------
00-------00-0----
-------0---0-----
--0-000-0--------
-0--11---------0-
--0-0-110-----0-0
------00-------0-
0----------------
-00-------00-----
00-0-----0110----
--0----0--00-----
----0-0----------
0--0-00--0-------
-0--00*00--------
0--0-010---0-----
0-0---0-0-0------
-01-10-0-0---0---
00.-10--0-0-0----
-0*00-00-0-0-----
--0-00*1--0------
0--0-0---0-------
-0--00.00--------
0-0--010--0------
-0-0--0--0-0-----

Generation = 10, Population = 141.
-----*-1---0-----
0-01-.-*---------
----1--.1----0-0-
1----11.11---0---
-.-.0*0--.01-1---
..**1--.-11----1-
0-0--..11.-1---0-
-0--11-*-----0---
---0-1*011-----0-
--1-.10.-10------
-0--.-..1*0--0---
------0*-0-------
---0--1*1-----00-
--.1.-1---0------
---------.--.---0
0----1-----------
-----------1--0--
0-----.----------
-010--..-0---0-0-
1---0-------0---0
.*.--1-----0-0---
--*01-----0---0-0
-*...---0-0----0-
0*.1.0--1--------
0-110-.*-*0------
01011---0-0---0--
--1*.**.1*10--0--
--0-*1.0*-0------
-----**1-0--0-0-0

Generation = 15, Population = 220.
0-1***-*--*----0-
--..-.-*0-11--0-0
*0*.*-1..100*--0-
--*-0**...-1-10--
*.-...---*-.-.0--
*.*.-11.-.1*11-.-
*-*10..-....-.0.-
--*0.*..010.-----
.--0***11---*0*--
1.-.*-0.0*-.1.---
*---.****.1-.-.**
-0**---.*.---000-
--.-*0.*.-***-*--
**..*..0*.0-10*-0
*-0-.-1***1-.-.--
1010.1.1-1-0--0-*
-.-.1...-*****---
--.--*.100---0*--
*-**.0*.*-110-01-
1*-010-0*--0-0*01
**.11*-.--**00*10
.1.0*-.--*--*010-
*...*---.--.-*---
-.*.*---*-11-0001
*---0-*.-.1-00.-*
0*1-1-.-.-0*1-*-0
1-.**.....*.*-.-0
-.-*...0.-.1*0-0-
--***..*-*--*10--

Generation = 20, Population = 191.
--.....*-0.-*-00-
--*.-.-.*-*-1*---
.0.******..1.---*
11.-**....-...111
..-...0**.1...-.1
...*-.*.*...-.-.-
.*..*..-*.*.-.**0
.**..***11*.*-*-*
..1-..*1.-1..0..-
.**..-1...-**.-1*
.*0-..*...-0....*
1....01*..-.1..00
.1.-*****1*..0*1-
*.**.*..**0--1.1-
*1.*.-....--...-*
--...-..***.-11-.
*.*...*.-*..*.--0
1**10....-.0.1.--
.-...-*..1**.-*-0
**1....1.11000*-1
*...*...--..1..10
*....*.1-.-0*-.-*
*.*.*--*.--.0*---
....*--*.*-.1.--1
*1-.--..-*-.--*-.
-..-.-.-..*.*1.--
......*.......*-*
*...*****0***01-*
-*********--..-10

Generation = 25, Population = 164.
**......--.-**-*1
*-..0*-..-.1*.--.
.......*...1*.**.
...-.*..*.-*.*.-.
..**..1..*-...-*.
..*.*....**...1**
.*.....*..**1*.**
....**..**.**1.-.
.**-.*.-.**..-**1
*..*.1-...1**.***
.**.......-.....*
-.*.*11...-*1..11
.-..*......**-..-
....*....*--**...
.....-..*.***..-.
.-**....**..-..0.
*..*.**.-**...1-1
...-..*.**.....--
*.***.........**-
...**.***..-.1*--
...**.*.-1..*...*
....*.*.*....1...
....*11.*...-.--*
.....*-...*...---
...***...*-*****.
1.*1.-.-..*...*10
..*........**.*1*
..*.......*..-11*
.*........--***.1

*** Life<Cell> 19x28 ***

Generation = 0, Population = 15.
----0-----------------------
---------------0------------
---------------0------------
----------------------------
----------------------------
------------0--------0-0-0--
----------------------------
----------------0-----------
----0-----------------------
------------------0---0-----
---0---0--------------------
----------------------------
----------------------------
----------------------------
----------------------------
--------------------------0-
----------------------------
----------------------------
--------------------0-------

*** Life<Cell> 13x10 ***

Generation = 0, Population = 12.
0--------0
----0-----
0---------
----------
-0---0-0--
----------
-0--------
----------
0---------
------0---
---0------
----------
-0--------

*** Life<Cell> 35x10 ***

Generation = 0, Population = 14.
----------
----------
0--0---0--
----------
0---------
----------
----------
------0-0-
----------
----------
----------
----------
----------
----------
----------
----------
--0-------
----------
---------0
-0--------
----------
----------
----------
----------
-------0--
-0--------
----------
----------
----0-----
----------
-------0--
--------0-
----------
----------
----------

Generation = 14, Population = 152.
--.*.*-11*
--*.*-.1--
*.*.*.-...
*-*.*0.-.*
.0.*...-*-
*110.**1--
11-10-----
-*-.***-.-
-1.-0-.0--
--11*-1---
0-.*-0-000
-10.*0-1--
--*---00--
---01.1--1
**-1*0--1-
-.00-..-11
-.1..***-1
--1.1.-.-*
0.1.-*.*-*
1.-.1.010*
.-*.-*0.--
-11.--0-10
10--**.0-1
-*-.-**0*-
--*...-.0.
-**-..1...
1-0-0...*.
-0-.**0-*-
.-*-0-..--
-**11**-11
1*0.-*-.**
-*-*.10*.-
-*1.**-.--
----.1*---
11*.0---.-

*** Life<Cell> 38x31 ***

Generation = 0, Population = 12.
-------------------------------
-------------------------------
-------------------------------
-0-----------------------------
-------------------------------
-------------------------------
-------------------------------
---------------0-----------0---
-------------------------------
-------------------------------
--0---0------------------------
-------------------------------
---------------0---------------
-----------0--------0----------
-------------------------------
-------------------------------
-------------------------------
-------------------------------
---------------------0---------
-------------------------------
-------------------------------
-------------------------------
-------------------------------
-------------------------------
-------------------------------
-------------------------------
-------------------------------
-------------------------------
-------------------------------
-------------------------------
-------------------------------
-------------------------------
-------------------------------
-------------------------------
----------------------------0--
--------------------------0----
-------------------------------
--------------------------0----

*** Life<Cell> 6x1 ***

Generation = 0, Population = 6.
0
0
0
0
0
0

*** Life<Cell> 6x21 ***

Generation = 0, Population = 10.
-------------------0-
--0------------------
----00---0----------0
-----------0------0--
-----------0---------
-------------0-------

*** Life<Cell> 5x30 ***

Generation = 0, Population = 10.
-0-------0--------------------
-0-------0--------------------
-0----------------------------
0-0---------0-0-0-------------
------------------------------

*** Life<Cell> 10x13 ***

Generation = 0, Population = 10.
----0---0----
-------------
-------0-----
-------------
---0---------
-----0-----00
---0-------0-
------0------
-------------
-------------

*** Life<Cell> 13x21 ***

Generation = 0, Population = 10.
---0-----------------
-----0---------------
---------------------
------0--------------
------------------0--
---------------------
-----------------0-00
-----------------0---
---------------------
-----------0---------
---------------------
---------------------
----0----------------

*** Life<Cell> 33x9 ***

Generation = 0, Population = 14.
---------
-------0-
-----0---
---------
-0----0--
---------
---------
------0--
---------
-----0---
------0--
---------
---------
---------
---------
---------
0--------
0--------
---------
--------0
---------
---------
---------
---------
---------
---------
---0-----
---------
-0-------
---------
-----0---
---------
-0-------

Generation = 20, Population = 104.
..1......
.*-......
*.**-....
*.*.1.-..
.*.*....-
.*......1
...*0.**.
*1****...
.**--*...
*.......-
.......*.
........1
.....*..-
**0**1...
.....**0.
**.*.**..
*..***..*
...0*...*
.*.--**1.
..**.---.
..-**-**.
.*..0..0.
*..-.1.-0
**1**-0-0
1..1-*.--
*-.-101--
-.**.-.-1
..---11-1
.-.-1----
*-**10---
-.-01-10-
.-1-0-0-0
*1--1----
