11

29 17
11
10 11
22 0
5 5
23 6
21 4
14 6
21 8
4 7
20 7
9 0
28 6
27 5

19 28
15
9 22
7 16
8 4
10 7
5 21
2 15
5 25
9 18
0 4
5 12
15 26
5 23
1 15
10 3
18 20
49 94

13 10
12
4 5
12 1
9 6
2 0
0 0
6 1
0 9
1 4
10 3
4 7
8 0
4 1
7 77

35 10
14
19 1
7 8
2 3
25 1
24 7
16 2
30 7
31 8
28 4
2 7
2 0
7 6
4 0
18 9
17 14

38 31
12
37 26
35 26
13 20
10 6
3 1
18 21
7 27
10 2
34 28
12 15
13 11
7 15
48 58

6 1
11
1 0
4 0
3 0
2 0
2 0
1 0
5 0
0 0
3 0
3 0
3 0
26 36

6 21
10
2 4
5 13
3 18
2 20
1 2
2 9
3 11
4 11
0 19
2 5
3 36

5 30
10
3 0
0 9
3 2
3 14
1 1
0 1
3 16
1 9
2 1
3 12
16 64

10 13
10
5 5
0 4
2 7
6 3
0 8
7 6
6 11
5 11
4 3
5 12
16 27

13 21
11
6 20
6 17
0 3
7 17
6 19
3 6
1 5
4 18
12 4
9 11
7 17
9 70

33 9
14
17 0
26 3
2 5
4 6
19 8
10 6
4 1
7 6
9 5
32 1
30 5
1 7
28 1
16 0
36 20
